mc23_13p6TeV.700773.Sh_2214_enugamma.deriv.DAOD_PHYSLITE.e8514_s4162_r14622_p6026
mc23_13p6TeV.700773.Sh_2214_enugamma.deriv.DAOD_PHYSLITE.e8514_s4159_r14799_p6026
mc23_13p6TeV.700774.Sh_2214_munugamma.deriv.DAOD_PHYSLITE.e8514_s4162_r14622_p6026
mc23_13p6TeV.700774.Sh_2214_munugamma.deriv.DAOD_PHYSLITE.e8514_s4159_r14799_p6026
mc23_13p6TeV.700775.Sh_2214_taunugamma.deriv.DAOD_PHYSLITE.e8514_s4162_r14622_p6026
mc23_13p6TeV.700775.Sh_2214_taunugamma.deriv.DAOD_PHYSLITE.e8514_s4159_r14799_p6026
## how about replacing the above with mc23_13p6TeV.701170.Sh_2214_lvgammajj.recon.AOD.e8514_s4162_r14622